…
# Independence considering species
indep2 <- cam_data %>%
  ct_independence(data = ., datetime = datetimes,
                  format = "%Y-%m-%d %H:%M:%S",
                  species_column = "species")

sprintf("Independent observations: %s", nrow(indep2))
#> [1] "Independent observations: 146"

# Use a standalone vector of datetime values
dtime <- cam_data$datetimes
ct_independence(datetime = dtime, format = "%Y-%m-%d %H:%M:%S")
#> # A tibble: 140 × 1
#>    datetime           
#>    <dttm>             
#>  1 2024-03-10 20:09:27
#>  2 2024-03-12 00:07:36
#>  3 2024-03-12 02:54:31
#>  4 2024-03-12 04:16:32
#>  5 2024-03-16 03:14:26
#>  6 2024-03-16 23:04:41
#>  7 2024-03-17 15:14:29
#>  8 2024-03-17 22:11:38
#>  9 2024-03-18 21:22:46
#> 10 2024-03-19 21:41:35
#> # ℹ 130 more rows
```
