Rarefaction and Extrapolation of Species Diversity Estimation with Camera Trap Data using ct R package • ct
…
Camera trap analysis typically requires converting detection records
into standardized sampling units. We use camera-days as our sampling
units:

# Aggregate data to daily detection records per camera
camday <- ct_camera_day(
  data = camdata1,
  deployment_column = camera,
  datetime_column = datetime,
  species_column = species,
  size_column = number
)
camday
#> # A tibble: 2,600 × 5
#>    camera   date       species                 number sampling_unit   
#>    <chr>    <date>     <chr>                    <int> <chr>           
#>  1 CAMERA 1 2024-03-24 Canis adustus                1 CAMERA 120240324
#>  2 CAMERA 1 2024-03-24 Chlorocebus aethiops         0 CAMERA 120240324
#>  3 CAMERA 1 2024-03-24 Erythrocebus patas           1 CAMERA 120240324
#>  4 CAMERA 1 2024-03-24 Genetta genetta              0 CAMERA 120240324
#>  5 CAMERA 1 2024-03-24 Lepus crawshayi              0 CAMERA 120240324
#>  6 CAMERA 1 2024-03-24 Mellivora capensis           0 CAMERA 120240324
#>  7 CAMERA 1 2024-03-24 Sylvicapra grimmia           0 CAMERA 120240324
#>  8 CAMERA 1 2024-03-24 Syncerus caffer              1 CAMERA 120240324
#>  9 CAMERA 1 2024-03-24 Thryonomys swinderianus      0 CAMERA 120240324
#> 10 CAMERA 1 2024-03-24 Tragelaphus scriptus         0 CAMERA 120240324
#> # ℹ 2,590 more rows
…
